<?xml version="1.0"
encoding="UTF-8"?>
<svg width="2000" height="2000"
xmlns="http://www.w3.org/2000/svg">
  <rect
    x="480"
    y="508"
    width="27"
    height="23"
    stroke="red"
    stroke-width="1"
    fill-opacity="0"
  />
  <rect
    x="440"
    y="544"
    width="28"
    height="27"
    stroke="blue"
    stroke-width="1"
    fill-opacity="0"
  />
  <rect
    x="485"
    y="551"
    width="18"
    height="18"
    stroke="blue"
    stroke-width="1"
    fill-opacity="0"
  />
  <rect
    x="512"
    y="525"
    width="26"
    height="22"
    stroke="red"
    stroke-width="1"
    fill-opacity="0"
  />
  <rect
    x="468"
    y="589"
    width="24"
    height="20"
    stroke="yellow"
    stroke-width="1"
    fill-opacity="0"
  />
  <rect
    x="515"
    y="568"
    width="19"
    height="19"
    stroke="yellow"
    stroke-width="1"
    fill-opacity="0"
  />
  <rect
    x="523"
    y="582"
    width="19"
    height="17"
    stroke="red"
    stroke-width="1"
    fill-opacity="0"
  />
  <rect
    x="563"
    y="540"
    width="20"
    height="24"
    stroke="red"
    stroke-width="1"
    fill-opacity="0"
  />
</svg>
